{"frame_index": 0, "detections": {"0": [752.0, 21.000000000000032, 14.0, 18.999999999999936], "1": [495.0, 275.0, 17.0, 16.999999999999993], "2": [77.0, 364.0000000000001, 26.0, 18.999999999999936], "3": [420.0, 480.00000000000006, 14.0, 9.999999999999993]}}
{"frame_index": 1, "detections": {"0": [752.0, 21.000000000000004, 13.0, 19.999999999999993], "1": [496.0, 276.8, 17.0, 14.4], "2": [77.0, 364.00000000000006, 26.0, 19.999999999999993], "3": [421.0, 480.00000000000006, 13.0, 10.999999999999995]}}
{"frame_index": 2, "detections": {"0": [752.0, 21.000000000000004, 13.0, 19.999999999999993], "1": [497.0, 276.0, 18.0, 16.999999999999993], "2": [78.0, 364.00000000000006, 25.0, 19.999999999999993], "3": [421.0, 480.00000000000006, 14.0, 10.999999999999995]}}
{"frame_index": 3, "detections": {"0": [752.0, 22.00000000000003, 13.0, 18.999999999999936], "1": [499.0, 277.0, 18.0, 16.999999999999993], "2": [78.0, 364.0000000000001, 26.0, 18.999999999999936], "3": [422.0, 481.00000000000006, 13.0, 9.999999999999993]}}
{"frame_index": 4, "detections": {"0": [753.0, 22.000000000000004, 13.0, 19.999999999999993], "1": [502.0, 278.0, 17.0, 16.999999999999993], "2": [79.0, 363.0000000000001, 27.0, 18.999999999999936], "3": [423.0, 481.00000000000006, 13.0, 9.999999999999993]}}
{"frame_index": 5, "detections": {"0": [753.0, 23.000000000000004, 13.0, 19.999999999999993], "1": [504.0, 279.0, 18.0, 16.999999999999993], "2": [81.0, 362.00000000000006, 27.0, 19.999999999999993], "3": [424.0, 482.0, 14.0, 9.999999999999993]}}
{"frame_index": 6, "detections": {"0": [753.0, 24.0, 13.0, 20.999999999999996], "1": [507.0, 280.0, 17.0, 16.999999999999993], "2": [82.0, 360.99999999999994, 28.0, 19.999999999999993], "3": [425.0, 482.0, 14.0, 9.999999999999993]}}
{"frame_index": 7, "detections": {"0": [753.0, 25.0, 13.0, 20.999999999999996], "1": [511.0, 282.0, 17.0, 16.999999999999993], "2": [84.0, 359.99999999999994, 28.0, 19.999999999999993], "3": [427.0, 483.0, 14.0, 9.999999999999993]}}
{"frame_index": 8, "detections": {"0": [753.0, 26.0, 14.0, 20.999999999999996], "1": [515.0, 283.0, 16.0, 16.999999999999993], "2": [87.0, 358.99999999999994, 28.0, 19.999999999999993], "3": [429.0, 483.0, 13.0, 10.999999999999995]}}
{"frame_index": 9, "detections": {"0": [754.0, 27.0, 13.0, 20.999999999999996], "1": [518.0, 285.0, 17.0, 16.999999999999993], "2": [90.0, 357.0, 28.0, 19.999999999999993], "3": [430.0, 484.0, 14.0, 9.999999999999993]}}
{"frame_index": 10, "detections": {"0": [754.0, 29.0, 12.0, 20.999999999999996], "1": [523.0, 287.0, 15.0, 16.999999999999993], "2": [93.0, 356.0, 29.0, 19.999999999999993], "3": [433.0, 484.0, 14.0, 9.999999999999993]}}
{"frame_index": 11, "detections": {"0": [754.0, 30.0, 13.0, 21.999999999999996], "1": [527.0, 289.0, 15.0, 15.999999999999998], "2": [96.0, 354.0, 29.0, 19.999999999999993], "3": [435.0, 484.0, 14.0, 10.999999999999995]}}
{"frame_index": 12, "detections": {"0": [754.0, 32.0, 13.0, 21.999999999999996], "1": [532.0, 291.0, 14.0, 15.999999999999998], "2": [100.0, 352.0, 30.0, 19.999999999999993], "3": [438.0, 485.0, 13.0, 10.999999999999995]}}
{"frame_index": 13, "detections": {"0": [754.0, 34.0, 13.0, 21.999999999999996], "1": [537.0, 293.0, 14.0, 15.999999999999998], "2": [104.0, 349.0, 30.0, 20.999999999999996], "3": [440.0, 485.0, 14.0, 10.999999999999995]}}
{"frame_index": 14, "detections": {"0": [755.0, 36.0, 12.0, 21.999999999999996], "1": [541.0, 295.0, 15.0, 15.999999999999998], "2": [109.0, 347.0, 31.0, 20.999999999999996], "3": [443.0, 486.0, 14.0, 10.999999999999995]}}
{"frame_index": 15, "detections": {"0": [755.0, 39.00000000000001, 13.0, 20.999999999999996], "1": [546.0, 298.0, 14.0, 14.999999999999996], "2": [114.0, 344.0, 31.0, 21.999999999999996], "3": [446.0, 486.0, 14.0, 10.999999999999995]}}
{"frame_index": 16, "detections": {"0": [755.0, 42.0, 13.0, 21.999999999999996], "1": [551.0, 300.0, 13.0, 14.999999999999996], "2": [120.0, 341.0, 31.0, 20.999999999999996], "3": [450.0, 486.0, 14.0, 10.999999999999995]}}
{"frame_index": 17, "detections": {"0": [755.0, 44.000000000000014, 12.0, 22.999999999999968], "1": [557.0, 302.0, 12.0, 13.999999999999998], "2": [126.0, 337.0, 32.0, 21.999999999999996], "3": [453.0, 487.0, 14.0, 10.999999999999995]}}
{"frame_index": 18, "detections": {"0": [756.0, 48.0, 12.0, 21.999999999999996], "1": [562.0, 304.0, 12.0, 14.999999999999996], "2": [133.0, 334.0, 32.0, 21.999999999999996], "3": [457.0, 487.0, 14.0, 11.999999999999995]}}
{"frame_index": 19, "detections": {"0": [756.0, 51.000000000000014, 12.0, 22.999999999999968], "1": [567.0, 307.0, 12.0, 13.999999999999998], "2": [140.0, 330.0, 32.0, 21.999999999999996], "3": [461.0, 488.0, 14.0, 10.999999999999995]}}
{"frame_index": 20, "detections": {"0": [756.0, 55.000000000000014, 12.0, 22.999999999999968], "1": [572.0, 309.0, 11.0, 13.999999999999998], "2": [147.0, 326.0, 33.0, 22.999999999999968], "3": [465.0, 488.0, 14.0, 11.999999999999995]}}
{"frame_index": 21, "detections": {"0": [756.0, 58.0, 13.0, 24.999999999999996], "1": [577.0, 311.0, 11.0, 12.999999999999996], "2": [155.0, 322.0, 34.0, 22.999999999999968], "3": [469.0, 488.0, 14.0, 11.999999999999995]}}
{"frame_index": 22, "detections": {"0": [757.0, 63.000000000000014, 12.0, 23.999999999999975], "1": [582.0, 313.0, 10.0, 12.999999999999996], "2": [164.0, 317.0, 34.0, 23.999999999999975], "3": [473.0, 489.0, 14.0, 10.999999999999995]}}
{"frame_index": 23, "detections": {"0": [757.0, 67.0, 13.0, 24.999999999999996], "1": [587.0, 316.0, 9.0, 12.999999999999996], "2": [173.0, 312.0, 34.0, 23.999999999999975], "3": [478.0, 489.0, 14.0, 11.999999999999995]}}
{"frame_index": 24, "detections": {"0": [757.0, 72.0, 12.0, 24.999999999999996], "1": [591.0, 318.0, 10.0, 12.999999999999996], "2": [182.0, 307.0, 35.0, 24.999999999999996], "3": [482.0, 489.0, 14.0, 11.999999999999995]}}
{"frame_index": 25, "detections": {"0": [758.0, 77.0, 12.0, 25.999999999999993], "1": [596.0, 320.0, 9.0, 12.999999999999996], "2": [193.0, 302.0, 35.0, 24.999999999999996], "3": [487.0, 490.0, 14.0, 11.999999999999995]}}
{"frame_index": 26, "detections": {"0": [758.0, 83.0, 12.0, 25.999999999999993], "1": [601.0, 322.0, 9.0, 11.999999999999995], "2": [203.0, 297.0, 35.0, 24.999999999999996], "3": [492.0, 490.0, 14.0, 12.999999999999996]}}
{"frame_index": 27, "detections": {"0": [759.0, 89.0, 12.0, 25.999999999999993], "1": [605.0, 324.0, 9.0, 11.999999999999995], "2": [214.0, 291.0, 36.0, 25.999999999999993], "3": [497.0, 490.0, 13.0, 12.999999999999996]}}
{"frame_index": 28, "detections": {"0": [759.0, 95.18, 13.0, 26.639999999999997], "1": [609.0, 325.0, 8.0, 11.999999999999995], "2": [226.0, 285.18, 35.0, 26.639999999999997], "3": [502.0, 491.0, 13.0, 11.999999999999995]}}
{"frame_index": 29, "detections": {"0": [760.0, 102.18000000000002, 11.0, 26.639999999999997], "1": [613.0, 327.0, 8.0, 11.999999999999995], "2": [238.0, 279.18, 36.0, 26.639999999999997], "3": [507.0, 491.0, 13.0, 11.999999999999995]}}
{"frame_index": 30, "detections": {"0": [760.0, 109.18, 12.0, 26.639999999999997], "1": [617.0, 329.0, 7.0, 10.999999999999995], "2": [250.0, 273.00000000000006, 36.0, 27.999999999999936], "3": [512.0, 491.0, 13.0, 11.999999999999995]}}
{"frame_index": 31, "detections": {"0": [761.0, 116.00000000000003, 12.0, 28.999999999999943], "1": [621.0, 331.0, 7.0, 10.999999999999995], "2": [263.0, 266.00000000000006, 36.0, 27.999999999999936], "3": [517.0, 491.0, 14.0, 11.999999999999995]}}
{"frame_index": 32, "detections": {"0": [762.0, 124.00000000000003, 12.0, 28.999999999999943], "1": [624.0, 332.0, 7.0, 10.999999999999995], "2": [277.0, 260.00000000000006, 35.0, 27.999999999999936], "3": [523.0, 491.0, 13.0, 11.999999999999995]}}
{"frame_index": 33, "detections": {"0": [762.0, 133.00000000000003, 13.0, 28.999999999999943], "1": [628.0, 334.0, 6.0, 10.999999999999995], "2": [291.0, 253.00000000000003, 35.0, 28.999999999999943], "3": [528.0, 491.0, 13.0, 12.999999999999996]}}
{"frame_index": 34, "detections": {"0": [763.0, 141.0, 13.0, 29.999999999999993], "1": [631.0, 335.0, 7.0, 10.999999999999995], "2": [305.0, 246.00000000000003, 35.0, 28.999999999999943], "3": [533.0, 491.0, 13.0, 12.999999999999996]}}
{"frame_index": 35, "detections": {"0": [764.0, 150.0, 13.0, 30.999999999999996], "1": [634.0, 337.0, 7.0, 9.999999999999993], "2": [319.0, 239.00000000000003, 34.0, 29.999999999999993], "3": [539.0, 491.0, 12.0, 12.999999999999996]}}
{"frame_index": 36, "detections": {"0": [765.0, 160.0, 14.0, 29.999999999999993], "1": [637.0, 338.0, 7.0, 9.999999999999993], "2": [334.0, 232.0, 34.0, 30.999999999999996], "3": [544.0, 491.0, 12.0, 12.999999999999996]}}
{"frame_index": 37, "detections": {"0": [766.0, 169.99999999999997, 13.0, 30.999999999999996], "1": [640.0, 339.0, 6.0, 9.999999999999993], "2": [348.0, 224.99999999999997, 34.0, 30.999999999999996], "3": [550.0, 491.0, 11.0, 12.999999999999996]}}
{"frame_index": 38, "detections": {"0": [767.0, 179.99999999999997, 14.0, 30.999999999999996], "1": [643.0, 340.0, 6.0, 9.999999999999993], "2": [363.0, 218.0, 34.0, 31.999999999999996], "3": [555.0, 491.0, 12.0, 12.999999999999996]}}
{"frame_index": 39, "detections": {"0": [768.0, 190.0, 15.0, 31.999999999999996], "1": [645.0, 341.0, 6.0, 9.999999999999993], "2": [378.0, 211.0, 33.0, 32.99999999999998], "3": [560.0, 491.0, 12.0, 12.999999999999996]}}
{"frame_index": 40, "detections": {"0": [769.0, 201.0, 15.0, 31.999999999999996], "1": [647.0, 342.0, 6.0, 9.999999999999993], "2": [393.0, 205.0, 33.0, 32.99999999999998], "3": [566.0, 490.0, 11.0, 12.999999999999996]}}
{"frame_index": 41, "detections": {"0": [770.0, 212.0, 16.0, 32.99999999999998], "1": [650.0, 343.0, 6.0, 9.999999999999993], "2": [408.0, 198.0, 32.0, 32.99999999999998], "3": [571.0, 490.0, 11.0, 12.999999999999996]}}
{"frame_index": 42, "detections": {"0": [771.0, 223.0, 17.0, 32.99999999999998], "1": [652.0, 344.18, 6.0, 8.64], "2": [423.0, 190.99999999999997, 32.0, 33.999999999999986], "3": [576.0, 490.0, 12.0, 12.999999999999996]}}
{"frame_index": 43, "detections": {"0": [772.0, 234.0, 18.0, 32.99999999999998], "1": [654.0, 345.0, 5.0, 7.999999999999999], "2": [437.0, 185.0, 32.0, 33.999999999999986], "3": [582.0, 489.0, 11.0, 13.999999999999998]}}
{"frame_index": 44, "detections": {"0": [773.0, 245.0, 19.0, 32.99999999999998], "1": [655.0, 345.18, 6.0, 8.64], "2": [452.0, 178.99999999999997, 31.0, 33.999999999999986], "3": [587.0, 489.0, 11.0, 12.999999999999996]}}
{"frame_index": 45, "detections": {"0": [774.0, 256.0, 20.0, 33.999999999999986], "1": [657.0, 346.18, 5.0, 8.64], "2": [466.0, 173.0, 30.0, 34.99999999999999], "3": [592.0, 488.0, 10.0, 13.999999999999998]}}
{"frame_index": 46, "detections": {"0": [775.0, 267.0, 21.0, 33.999999999999986], "1": [658.0, 347.0, 6.0, 7.999999999999999], "2": [480.0, 167.99999999999997, 29.0, 34.99999999999999], "3": [597.0, 488.0, 10.0, 12.999999999999996]}}
{"frame_index": 47, "detections": {"0": [777.0, 278.0, 22.0, 33.999999999999986], "1": [659.0, 347.18, 6.0, 8.64], "2": [493.0, 180.0, 29.0, 0.0], "3": [602.0, 487.0, 10.0, 13.999999999999998]}}
{"frame_index": 48, "detections": {"0": [778.0, 288.0, 22.0, 33.999999999999986], "1": [661.0, 348.0, 5.0, 7.999999999999999], "2": [506.0, 175.0, 27.0, 0.0], "3": [607.0, 486.0, 10.0, 13.999999999999998]}}
{"frame_index": 49, "detections": {"0": [780.0, 298.0, 23.0, 33.999999999999986], "1": [662.0, 348.0, 6.0, 7.999999999999999], "2": [518.0, 171.0, 27.0, 0.0], "3": [612.0, 486.0, 10.0, 12.999999999999996]}}
{"frame_index": 50, "detections": {"0": [781.0, 307.0, 24.0, 34.99999999999999], "1": [662.0, 348.0, 7.0, 7.999999999999999], "2": [529.0, 148.00000000000003, 27.0, 36.999999999999936], "3": [617.0, 485.0, 10.0, 12.999999999999996]}}
{"frame_index": 51, "detections": {"0": [783.0, 316.0, 25.0, 34.99999999999999], "1": [663.0, 349.0, 7.0, 6.999999999999999], "2": [540.0, 163.0, 25.0, 0.0], "3": [622.0, 484.0, 10.0, 12.999999999999996]}}
{"frame_index": 52, "detections": {"0": [784.0, 325.0, 26.0, 33.999999999999986], "1": [664.0, 349.0, 6.0, 7.999999999999999], "2": [551.0, 159.0, 24.0, 0.0], "3": [627.0, 483.0, 9.0, 12.999999999999996]}}
{"frame_index": 53, "detections": {"0": [786.0, 332.0, 26.0, 33.999999999999986], "1": [665.0, 349.0, 6.0, 7.999999999999999], "2": [560.0, 138.00000000000003, 25.0, 36.999999999999936], "3": [632.0, 482.0, 8.0, 12.999999999999996]}}
{"frame_index": 54, "detections": {"0": [788.0, 339.0, 27.0, 33.999999999999986], "1": [665.0, 349.0, 6.0, 7.999999999999999], "2": [569.0, 153.0, 23.0, 0.0], "3": [636.0, 481.0, 9.0, 12.999999999999996]}}
{"frame_index": 55, "detections": {"0": [789.0, 345.0, 27.0, 33.999999999999986], "1": [665.0, 349.0, 7.0, 7.999999999999999], "2": [577.0, 151.0, 23.0, 0.0], "3": [641.0, 480.0, 8.0, 13.999999999999998]}}
{"frame_index": 56, "detections": {"0": [791.0, 350.0, 28.0, 33.999999999999986], "1": [666.0, 349.0, 6.0, 7.999999999999999], "2": [585.0, 131.00000000000003, 21.0, 36.999999999999936], "3": [645.0, 479.00000000000006, 9.0, 13.999999999999998]}}
{"frame_index": 57, "detections": {"0": [793.0, 353.99999999999994, 28.0, 32.99999999999998], "1": [666.0, 349.0, 7.0, 7.999999999999999], "2": [592.0, 130.0, 20.0, 34.99999999999999], "3": [650.0, 478.00000000000006, 8.0, 13.999999999999998]}}
{"frame_index": 58, "detections": {"0": [794.0, 357.00000000000006, 29.0, 33.999999999999986], "1": [666.0, 349.0, 7.0, 6.999999999999999], "2": [598.0, 147.0, 19.0, 0.0], "3": [654.0, 475.99999999999994, 8.0, 13.999999999999998]}}
{"frame_index": 59, "detections": {"0": [795.0, 360.0, 30.0, 31.999999999999996], "1": [666.0, 349.0, 7.0, 6.999999999999999], "2": [603.0, 129.0, 19.0, 34.99999999999999], "3": [659.0, 474.99999999999994, 7.0, 13.999999999999998]}}
{"frame_index": 60, "detections": {"0": [795.0, 362.0, 30.0, 32.99999999999998], "1": [666.0, 348.0, 7.0, 7.999999999999999], "2": [610.0, 129.0, 18.0, 34.99999999999999], "3": [663.0, 473.0, 8.0, 13.999999999999998]}}
{"frame_index": 61, "detections": {"0": [795.0, 364.0, 28.0, 31.999999999999996], "1": [665.0, 348.0, 7.0, 7.999999999999999], "2": [616.0, 130.0, 18.0, 34.99999999999999], "3": [668.0, 471.0, 7.0, 13.999999999999998]}}
{"frame_index": 62, "detections": {"0": [793.0, 366.0, 29.0, 31.999999999999996], "1": [664.0, 348.0, 7.0, 7.999999999999999], "2": [623.0, 132.0, 18.0, 33.999999999999986], "3": [672.0, 468.0, 8.0, 13.999999999999998]}}
{"frame_index": 63, "detections": {"0": [790.0, 368.0, 29.0, 31.999999999999996], "1": [664.0, 348.0, 6.0, 7.999999999999999], "2": [631.0, 135.0, 16.0, 33.999999999999986], "3": [677.0, 466.0, 7.0, 13.999999999999998]}}
{"frame_index": 64, "detections": {"0": [787.0, 370.0, 29.0, 29.999999999999993], "1": [662.0, 348.0, 8.0, 7.999999999999999], "2": [638.0, 139.0, 17.0, 31.999999999999996], "3": [682.0, 463.0, 7.0, 13.999999999999998]}}
{"frame_index": 65, "detections": {"0": [782.0, 371.0, 29.0, 29.999999999999993], "1": [661.0, 348.0, 8.0, 7.999999999999999], "2": [646.0, 143.0, 15.0, 32.99999999999998], "3": [686.0, 459.0, 8.0, 13.999999999999998]}}
{"frame_index": 66, "detections": {"0": [777.0, 372.0, 29.0, 28.999999999999943], "1": [659.0, 347.18, 8.0, 8.64], "2": [654.0, 148.0, 15.0, 30.999999999999996], "3": [691.0, 455.00000000000006, 7.0, 13.999999999999998]}}
{"frame_index": 67, "detections": {"0": [772.0, 373.00000000000006, 28.0, 27.999999999999936], "1": [657.0, 347.18, 8.0, 8.64], "2": [662.0, 153.0, 15.0, 31.999999999999996], "3": [696.0, 451.0, 8.0, 13.999999999999998]}}
{"frame_index": 68, "detections": {"0": [765.0, 373.00000000000006, 28.0, 27.999999999999936], "1": [655.0, 347.0, 8.0, 7.999999999999999], "2": [670.0, 159.0, 14.0, 29.999999999999993], "3": [701.0, 447.0, 7.0, 13.999999999999998]}}
{"frame_index": 69, "detections": {"0": [759.0, 374.0, 27.0, 25.999999999999993], "1": [653.0, 347.0, 7.0, 7.999999999999999], "2": [678.0, 166.0, 15.0, 29.999999999999993], "3": [706.0, 442.0, 7.0, 13.999999999999998]}}
{"frame_index": 70, "detections": {"0": [752.0, 374.0, 26.0, 25.999999999999993], "1": [650.0, 347.0, 8.0, 7.999999999999999], "2": [685.0, 173.00000000000006, 15.0, 27.999999999999936], "3": [710.0, 436.0, 9.0, 13.999999999999998]}}
{"frame_index": 71, "detections": {"0": [745.0, 374.0, 26.0, 24.999999999999996], "1": [647.0, 347.0, 8.0, 7.999999999999999], "2": [693.0, 180.00000000000003, 15.0, 27.999999999999936], "3": [715.0, 429.99999999999994, 9.0, 14.999999999999996]}}
{"frame_index": 72, "detections": {"0": [737.0, 374.0, 25.0, 23.999999999999975], "1": [643.0, 347.0, 9.0, 7.999999999999999], "2": [700.0, 188.18, 16.0, 26.639999999999997], "3": [721.0, 424.0, 9.0, 13.999999999999998]}}
{"frame_index": 73, "detections": {"0": [729.0, 373.0, 25.0, 23.999999999999975], "1": [640.0, 347.18, 8.0, 8.64], "2": [708.0, 196.00000000000003, 16.0, 25.999999999999993], "3": [726.0, 417.0, 9.0, 14.999999999999996]}}
{"frame_index": 74, "detections": {"0": [722.0, 373.0, 24.0, 22.999999999999968], "1": [636.0, 347.18, 8.0, 8.64], "2": [715.0, 204.0, 16.0, 24.999999999999996], "3": [731.0, 410.00000000000006, 10.0, 14.999999999999996]}}
{"frame_index": 75, "detections": {"0": [714.0, 372.0, 23.0, 21.999999999999996], "1": [631.0, 347.18, 10.0, 8.64], "2": [722.0, 212.0, 16.0, 24.999999999999996], "3": [737.0, 402.0, 10.0, 13.999999999999998]}}
{"frame_index": 76, "detections": {"0": [706.0, 372.0, 23.0, 20.999999999999996], "1": [626.0, 347.0, 10.0, 7.999999999999999], "2": [730.0, 220.0, 16.0, 24.999999999999996], "3": [742.0, 394.0, 11.0, 13.999999999999998]}}
{"frame_index": 77, "detections": {"0": [699.0, 371.0, 22.0, 19.999999999999993], "1": [621.0, 347.0, 10.0, 7.999999999999999], "2": [737.0, 228.99999999999997, 16.0, 23.999999999999975], "3": [748.0, 384.99999999999994, 12.0, 13.999999999999998]}}
{"frame_index": 78, "detections": {"0": [691.0, 370.0, 22.0, 19.999999999999993], "1": [616.0, 347.18, 10.0, 8.64], "2": [744.0, 237.00000000000003, 16.0, 22.999999999999968], "3": [754.0, 375.0, 12.0, 14.999999999999996]}}
{"frame_index": 79, "detections": {"0": [684.0, 369.00000000000006, 21.0, 18.999999999999936], "1": [610.0, 347.18, 11.0, 8.64], "2": [750.0, 246.0, 17.0, 21.999999999999996], "3": [760.0, 365.00000000000006, 13.0, 14.999999999999996]}}
{"frame_index": 80, "detections": {"0": [676.0, 370.8, 22.0, 14.4], "1": [604.0, 347.18, 10.0, 8.64], "2": [757.0, 254.0, 17.0, 21.999999999999996], "3": [767.0, 354.0, 13.0, 15.999999999999998]}}
{"frame_index": 81, "detections": {"0": [669.0, 369.8, 20.0, 14.4], "1": [597.0, 347.0, 11.0, 9.999999999999993], "2": [763.0, 263.0, 17.0, 20.999999999999996], "3": [773.0, 343.0, 14.0, 15.999999999999998]}}
{"frame_index": 82, "detections": {"0": [663.0, 367.0, 19.0, 16.999999999999993], "1": [590.0, 347.0, 12.0, 9.999999999999993], "2": [770.0, 271.0, 17.0, 20.999999999999996], "3": [780.0, 330.0, 14.0, 15.999999999999998]}}
{"frame_index": 83, "detections": {"0": [656.0, 366.0, 19.0, 16.999999999999993], "1": [583.0, 347.0, 11.0, 10.999999999999995], "2": [776.0, 279.0, 17.0, 19.999999999999993], "3": [787.0, 318.0, 14.0, 15.999999999999998]}}
{"frame_index": 84, "detections": {"0": [650.0, 365.00000000000006, 18.0, 15.999999999999998], "1": [575.0, 347.0, 11.0, 9.999999999999993], "2": [782.0, 287.0, 16.0, 19.999999999999993], "3": [794.0, 305.8, 15.0, 14.4]}}
{"frame_index": 85, "detections": {"0": [644.0, 364.00000000000006, 18.0, 15.999999999999998], "1": [566.0, 348.18, 13.0, 8.64], "2": [787.0, 296.8, 17.0, 14.4], "3": [801.0, 291.8, 16.0, 14.4]}}
{"frame_index": 86, "detections": {"0": [638.0, 362.99999999999994, 18.0, 15.999999999999998], "1": [557.0, 348.0, 13.0, 9.999999999999993], "2": [792.0, 304.8, 17.0, 14.4], "3": [808.0, 275.00000000000006, 17.0, 18.999999999999936]}}
{"frame_index": 87, "detections": {"0": [632.0, 361.99999999999994, 17.0, 15.999999999999998], "1": [548.0, 348.0, 12.0, 10.999999999999995], "2": [798.0, 311.8, 16.0, 14.4], "3": [816.0, 260.00000000000006, 17.0, 18.999999999999936]}}
{"frame_index": 88, "detections": {"0": [627.0, 361.99999999999994, 17.0, 13.999999999999998], "1": [538.0, 348.0, 13.0, 10.999999999999995], "2": [803.0, 317.0, 15.0, 16.999999999999993], "3": [824.0, 244.00000000000003, 18.0, 19.999999999999993]}}
{"frame_index": 89, "detections": {"0": [622.0, 361.0, 17.0, 13.999999999999998], "1": [527.0, 348.0, 14.0, 11.999999999999995], "2": [807.0, 324.0, 16.0, 16.999999999999993], "3": [832.0, 227.0, 18.0, 20.999999999999996]}}
{"frame_index": 90, "detections": {"0": [617.0, 360.0, 16.0, 13.999999999999998], "1": [516.0, 349.0, 14.0, 10.999999999999995], "2": [812.0, 331.0, 15.0, 15.999999999999998], "3": [840.0, 210.0, 19.0, 21.999999999999996]}}
{"frame_index": 91, "detections": {"0": [613.0, 359.0, 15.0, 13.999999999999998], "1": [505.0, 349.0, 15.0, 10.999999999999995], "2": [816.0, 337.0, 15.0, 15.999999999999998], "3": [849.0, 192.0, 19.0, 21.999999999999996]}}
{"frame_index": 92, "detections": {"0": [608.0, 359.0, 16.0, 12.999999999999996], "1": [493.0, 349.0, 15.0, 11.999999999999995], "2": [820.0, 344.0, 15.0, 14.999999999999996], "3": [857.0, 172.99999999999997, 21.0, 23.999999999999975]}}
{"frame_index": 93, "detections": {"0": [604.0, 358.0, 16.0, 11.999999999999995], "1": [481.0, 350.0, 15.0, 11.999999999999995], "2": [824.0, 349.0, 15.0, 14.999999999999996], "3": [866.0, 154.0, 20.0, 24.999999999999996]}}
{"frame_index": 94, "detections": {"0": [600.0, 357.0, 15.0, 12.999999999999996], "1": [468.0, 350.0, 16.0, 12.999999999999996], "2": [827.0, 355.0, 15.0, 14.999999999999996], "3": [875.0, 135.0, 21.0, 24.999999999999996]}}
{"frame_index": 95, "detections": {"0": [597.0, 357.0, 14.0, 11.999999999999995], "1": [455.0, 350.0, 16.0, 12.999999999999996], "2": [831.0, 360.0, 15.0, 14.999999999999996], "3": [883.0, 115.0, 23.0, 25.999999999999993]}}
{"frame_index": 96, "detections": {"0": [593.0, 356.0, 14.0, 12.999999999999996], "1": [441.0, 351.0, 17.0, 13.999999999999998], "2": [834.0, 366.00000000000006, 15.0, 13.999999999999998], "3": [892.0, 94.00000000000003, 23.0, 27.999999999999936]}}
{"frame_index": 97, "detections": {"0": [590.0, 356.0, 14.0, 10.999999999999995], "1": [427.0, 351.0, 18.0, 14.999999999999996], "2": [837.0, 370.0, 15.0, 13.999999999999998], "3": [901.0, 74.00000000000003, 23.0, 27.999999999999936]}}
{"frame_index": 98, "detections": {"0": [587.0, 355.0, 13.0, 11.999999999999995], "1": [412.0, 352.0, 19.0, 14.999999999999996], "2": [840.0, 375.0, 15.0, 13.999999999999998], "3": [910.0, 53.0, 24.0, 29.999999999999993]}}
