0 0.598046875 0.15069444444444444 0.01015625 0.037
0 0.47890625 0.4597222222222222 0.00625 0.01666666666666666
0 0.190234375 0.41458333333333336 0.02734375 0.037
0 0.397265625 0.6902777777777778 0.01015625 0.01666666666666666
