0 0.593359375 0.04791666666666667 0.01015625 0.02916666666666666
0 0.402734375 0.40069444444444446 0.01328125 0.0236111111111111
0 0.075 0.5152777777777777 0.021875 0.02777777777777777
0 0.3375 0.6763888888888889 0.0109375 0.01388888888888888
