0 0.592578125 0.043055555555555555 0.01015625 0.02777777777777777
0 0.3953125 0.3951388888888889 0.0140625 0.0236111111111111
0 0.070703125 0.5194444444444445 0.01953125 0.02777777777777777
0 0.334375 0.6743055555555556 0.0109375 0.01527777777777777
