0 0.5921875 0.5368055555555555 0.0203125 0.03472222222222222
0 0.50859375 0.4875 0.00625 0.01111111111111111
0 0.547265625 0.26944444444444443 0.01171875 0.0388888888888888
0 0.562109375 0.6076388888888888 0.00703125 0.02083333333333333
