0 0.48125 0.5076388888888889 0.0125 0.01805555555555555
0 0.391015625 0.4930555555555556 0.01171875 0.01666666666666666
0 0.646484375 0.48819444444444443 0.01171875 0.02083333333333333
0 0.677734375 0.2569444444444444 0.01640625 0.0333333333333333
