0 0.61640625 0.4236111111111111 0.0171875 0.0472222222222222
0 0.518359375 0.4888888888888889 0.00390625 0.01111111111111111
0 0.405859375 0.24305555555555555 0.02109375 0.0
0 0.478125 0.6847222222222222 0.0078125 0.01944444444444444
