0 0.600390625 0.2048611111111111 0.01015625 0.0402777777777777
0 0.49296875 0.47152777777777777 0.0046875 0.01527777777777777
0 0.241015625 0.3715277777777778 0.02734375 0.0402777777777777
0 0.417578125 0.6909722222222222 0.01015625 0.01805555555555555
