0 0.594140625 0.052083333333333336 0.01015625 0.02916666666666666
0 0.411328125 0.4076388888888889 0.01328125 0.0236111111111111
0 0.08125 0.5097222222222222 0.021875 0.02777777777777777
0 0.34140625 0.6791666666666667 0.0109375 0.01388888888888888
