0 0.594140625 0.059722222222222225 0.01015625 0.03055555555555555
0 0.42109375 0.4152777777777778 0.0109375 0.02222222222222222
0 0.08984375 0.5027777777777778 0.0234375 0.02777777777777777
0 0.347265625 0.68125 0.01015625 0.01527777777777777
