0 0.593359375 0.049305555555555554 0.01015625 0.02916666666666666
0 0.405859375 0.40347222222222223 0.01328125 0.0236111111111111
0 0.0765625 0.5138888888888888 0.021875 0.02777777777777777
0 0.3390625 0.6777777777777778 0.0109375 0.01388888888888888
