0 0.6125 0.37916666666666665 0.015625 0.0472222222222222
0 0.515234375 0.48680555555555555 0.00390625 0.012
0 0.37578125 0.26458333333333334 0.0234375 0.0486111111111111
0 0.46640625 0.6875 0.0078125 0.01944444444444444
