0 0.628515625 0.5333333333333333 0.02265625 0.04444444444444444
0 0.52109375 0.4888888888888889 0.0046875 0.01111111111111111
0 0.49921875 0.2111111111111111 0.0125 0.0472222222222222
0 0.531640625 0.6569444444444444 0.00546875 0.01944444444444444
