0 0.5484375 0.5277777777777778 0.0171875 0.02777777777777777
0 0.48515625 0.48819444444444443 0.0078125 0.012
0 0.5875 0.3451388888888889 0.0125 0.0319444444444444
0 0.59375 0.53125 0.009375 0.02083333333333333
