0 0.601953125 0.2298611111111111 0.01015625 0.04305555555555555
0 0.498046875 0.475 0.00546875 0.01388888888888888
0 0.2625 0.3527777777777778 0.0265625 0.04166666666666666
0 0.42578125 0.6909722222222222 0.009375 0.01805555555555555
