0 0.606640625 0.3013888888888889 0.01171875 0.04444444444444444
0 0.5078125 0.48194444444444445 0.0046875 0.01388888888888888
0 0.319921875 0.3076388888888889 0.02578125 0.0458333333333333
0 0.446484375 0.6895833333333333 0.00859375 0.01805555555555555
