0 0.5953125 0.08194444444444444 0.009375 0.03055555555555555
0 0.44375 0.4326388888888889 0.009375 0.02083333333333333
0 0.11640625 0.4791666666666667 0.025 0.03055555555555555
0 0.3625 0.6847222222222222 0.0109375 0.01666666666666666
