0 0.5546875 0.5291666666666667 0.0171875 0.02777777777777777
0 0.4890625 0.4875 0.0078125 0.01111111111111111
0 0.58203125 0.3347222222222222 0.0125 0.0333333333333333
0 0.5890625 0.5444444444444444 0.009375 0.01944444444444444
