0 0.3875 0.7493055555555556 0.009375 0.012
0 0.673046875 0.059722222222222225 0.01328125 0.0333333333333333
0 0.4734375 0.7631944444444444 0.0078125 0.01527777777777777
0 0.466796875 0.45694444444444443 0.01484375 0.02777777777777777
