0 0.44453125 0.6770833333333334 0.0078125 0.01527777777777777
0 0.637890625 0.27291666666666664 0.01015625 0.0263888888888888
0 0.5046875 0.8798611111111111 0.00625 0.01805555555555555
0 0.541015625 0.5875 0.01015625 0.0361111111111111
