0 0.384375 0.7465277777777778 0.009375 0.012
0 0.673828125 0.05416666666666667 0.01328125 0.0333333333333333
0 0.4734375 0.7506944444444444 0.0078125 0.01527777777777777
0 0.45859375 0.44722222222222224 0.0140625 0.02777777777777777
