0 0.3859375 0.7326388888888888 0.009375 0.012
0 0.6703125 0.08680555555555555 0.0140625 0.0319444444444444
0 0.473046875 0.7173611111111111 0.00859375 0.012
0 0.445703125 0.44027777777777777 0.01328125 0.02
