0 0.480859375 0.6173611111111111 0.00703125 0.01527777777777777
0 0.612890625 0.4215277777777778 0.00859375 0.0236111111111111
0 0.5390625 0.9604166666666667 0.00625 0.02083333333333333
0 0.585546875 0.6770833333333334 0.01015625 0.037
