0 0.4078125 0.6993055555555555 0.009375 0.012
0 0.658203125 0.22152777777777777 0.01328125 0.02916666666666666
0 0.46484375 0.6520833333333333 0.009375 0.012
0 0.44140625 0.4638888888888889 0.0125 0.01944444444444444
