0 0.48984375 0.6020833333333333 0.00625 0.01527777777777777
0 0.607421875 0.45694444444444443 0.00859375 0.02222222222222222
0 0.548828125 0.9833333333333333 0.00546875 0.02222222222222222
0 0.596875 0.7 0.0109375 0.0388888888888888
