0 0.5375 0.5652777777777778 0.009375 0.01944444444444444
0 0.6109375 0.7347222222222223 0.0109375 0.02222222222222222
0 0.42265625 0.42916666666666664 0.009375 0.01666666666666666
0 0.453125 0.5458333333333333 0.0078125 0.01111111111111111
