0 0.39453125 0.7444444444444445 0.009375 0.01388888888888888
0 0.66953125 0.08125 0.0125 0.0319444444444444
0 0.47578125 0.7819444444444444 0.0078125 0.01666666666666666
0 0.47890625 0.4756944444444444 0.0140625 0.02916666666666666
