0 0.494140625 0.5944444444444444 0.00546875 0.01388888888888888
0 0.604296875 0.4736111111111111 0.00859375 0.02222222222222222
0 0.554296875 0.9916666666666667 0.00703125 0.01666666666666666
0 0.601953125 0.7111111111111111 0.01171875 0.0388888888888888
