0 0.41953125 0.7145833333333333 0.009375 0.01527777777777777
0 0.654296875 0.17291666666666666 0.01171875 0.02916666666666666
0 0.487890625 0.83125 0.00703125 0.01805555555555555
0 0.5109375 0.5305555555555556 0.0125 0.0333333333333333
