0 0.440234375 0.6840277777777778 0.00859375 0.01527777777777777
0 0.641015625 0.2548611111111111 0.01015625 0.0263888888888888
0 0.501171875 0.8708333333333333 0.00546875 0.01944444444444444
0 0.5359375 0.5777777777777777 0.0109375 0.0361111111111111
