0 0.467578125 0.6395833333333333 0.00703125 0.01527777777777777
0 0.62265625 0.3659722222222222 0.009375 0.0236111111111111
0 0.52421875 0.9284722222222223 0.00625 0.02083333333333333
0 0.56875 0.6423611111111112 0.009375 0.037
