0 0.35859375 0.5534722222222223 0.0140625 0.029166666666666667 0
0 0.512890625 0.5381944444444444 0.01015625 0.015277777777777777 1
0 0.3671875 0.5194444444444445 0.0140625 0.025 2
0 0.437890625 0.5659722222222222 0.03046875 0.05416666666666667 3
