0 0.364453125 0.5583333333333333 0.01484375 0.022222222222222223 0
0 0.4546875 0.5972222222222222 0.015625 0.022222222222222223 1
0 0.36171875 0.8458333333333333 0.0203125 0.025 2
0 0.47109375 0.6451388888888889 0.028125 0.043055555555555555 3
