0 0.6703125 0.40555555555555556 0.015625 0.027777777777777776 0
0 0.205078125 0.7034722222222223 0.01953125 0.020833333333333332 1
0 0.421875 0.43125 0.003125 0.015277777777777777 2
0 0.627734375 0.9909722222222223 0.01796875 0.018055555555555554 3
