0 0.701171875 0.31180555555555556 0.01328125 0.02638888888888889 0
0 0.52578125 0.5131944444444444 0.00625 0.015277777777777777 1
0 0.3859375 0.2423611111111111 0.009375 0.02361111111111111 2
0 0.39609375 0.44166666666666665 0.0234375 0.03888888888888889 3
