0 0.683203125 0.3236111111111111 0.01328125 0.027777777777777776 0
0 0.525390625 0.5131944444444444 0.00546875 0.015277777777777777 1
0 0.384765625 0.25625 0.00859375 0.02361111111111111 2
0 0.39921875 0.45069444444444445 0.0234375 0.04027777777777778 3
