0 0.66796875 0.09375 0.0125 0.04027777777777778 0
0 0.507421875 0.5173611111111112 0.00546875 0.009722222222222222 1
0 0.39921875 0.1361111111111111 0.00625 0.022222222222222223 2
0 0.35 0.34930555555555554 0.015625 0.029166666666666667 3
