0 0.61796875 0.010416666666666666 0.0125 0.015277777777777777 0
0 0.500390625 0.5138888888888888 0.00546875 0.008333333333333333 1
0 0.4 0.14444444444444443 0.00625 0.022222222222222223 2
0 0.346484375 0.34444444444444444 0.01484375 0.027777777777777776 3
