0 0.52578125 0.4895833333333333 0.015625 0.02638888888888889 0
0 0.318359375 0.6625 0.01796875 0.022222222222222223 1
0 0.3953125 0.6868055555555556 0.015625 0.02361111111111111 2
0 0.580078125 0.8395833333333333 0.01484375 0.04583333333333333 3
