0 0.69140625 0.3909722222222222 0.015625 0.02638888888888889 0
0 0.190234375 0.7083333333333334 0.01953125 0.022222222222222223 1
0 0.421875 0.4027777777777778 0.0078125 0.016666666666666666 2
0 0.62421875 0.9986111111111111 0.003125 0.002777777777777778 3
