0 0.65859375 0.07152777777777777 0.0125 0.04027777777777778 0
0 0.506640625 0.5173611111111112 0.00546875 0.009722222222222222 1
0 0.39921875 0.1375 0.00625 0.022222222222222223 2
0 0.34921875 0.34791666666666665 0.015625 0.02638888888888889 3
