0 0.540234375 0.4826388888888889 0.01484375 0.02638888888888889 0
0 0.306640625 0.6680555555555555 0.01796875 0.022222222222222223 1
0 0.3984375 0.6576388888888889 0.0140625 0.02361111111111111 2
0 0.587109375 0.8555555555555555 0.01640625 0.041666666666666664 3
