0 0.676953125 0.11458333333333333 0.01328125 0.0375 0
0 0.508203125 0.5173611111111112 0.00546875 0.009722222222222222 1
0 0.398828125 0.1361111111111111 0.00703125 0.022222222222222223 2
0 0.3515625 0.3506944444444444 0.015625 0.029166666666666667 3
