-4.055799841880798340e-01 -4.055798649787902832e-01 -8.191522359848022461e-01 4.056198883056640625e+01
7.071069478988647461e-01 -7.071067094802856445e-01 2.087575978748645866e-08 -1.145453006756724790e-05
-5.792281031608581543e-01 -5.792281031608581543e-01 5.735766887664794922e-01 5.705679321289062500e+01
